…
Add estimated frequency and normalized estimated frequency

``` r
my_barrcoda_data <- BaracodaOutputAnalysis::estimated_frequency(data = my_barrcoda_data, fluochrome_dat = percent_FU)
```

``` r
my_barrcoda_data %>% 
  select(sample,Peptide,HLA,estimated_frequency, estimated_frequency_normalised_responses)
#> # A tibble: 7,853 × 5
#> # Groups:   sample [5]
#>    sample Peptide        HLA   estimated_frequency estimated_frequency_normali…¹
#>     <dbl> <chr>          <chr>               <dbl>                         <dbl>
#>  1   1849 CMV pp65 YSE   A0101            0.0513                        0.0170  
#>  2   1849 CMV pp50 VTE   A0101            0.0365                        0.0121  
#>  3   1849 Patient1849_18 A0101            0.00344                       0.00114 
#>  4   1849 Patient1849_15 A0101            0.00283                       0.000939
#>  5   1849 Patient1849_1  A0101            0.00420                       0.00139 
#>  6   1849 Patient1849_28 A0101            0.00131                       0.000436
#>  7   1849 Patient1849_19 A0101            0.00189                       0.000627
#>  8   1849 Patient1849_13 A0101            0.00113                       0.000375
#>  9   1849 Patient1849_14 A0101            0.00110                       0.000366
#> 10   1849 Patient1849_27 A0101            0.000931                      0.000309
#> # ℹ 7,843 more rows
#> # ℹ abbreviated name: ¹​estimated_frequency_normalised_responses
```
…
